chr - sv40 bimh 0 51788 vvvvlgrey
band sv40 bim0 exon_1 4125 4451 acen
band sv40 bim1 intron_1 4451 6987 acen
band sv40 bim2 exon_2 6987 7124 acen
band sv40 bim3 exon_3 7124 7306 acen
band sv40 bim4 exon_4 7306 7396 acen
band sv40 bim5 exon_5 33300 33404 acen
band sv40 bim6 exon_5-alt 37036 37161 acen
band sv40 bim7 exon_6 47389 47488 acen