<?xml version="1.0" standalone="no"?>
<svg width="800px" height="800px" xmlns="http://www.w3.org/2000/svg" version="1.1">
<g transform="translate(400,400)">
<path d="M 336 -176 Q -24 76 -167 -340" fill="none" stroke="rgb(36, 214, 188)" stroke-width="1.0" />
<path d="M 336 -175 Q -24 76 -167 -341" fill="none" stroke="rgb(36, 214, 188)" stroke-width="1.0" />
<path d="M 337 -175 Q -25 75 -166 -341" fill="none" stroke="rgb(36, 214, 188)" stroke-width="1.0" />
<path d="M 337 -174 Q -25 75 -166 -341" fill="none" stroke="rgb(36, 214, 188)" stroke-width="1.0" />
<path d="M 338 -173 Q -25 75 -165 -342 A 380 380 1 0, 0 -165 -341 Q -25 75 338 -172 A 380 380 1 0, 0 338 -173 z" fill="rgb(36, 214, 188)" stroke="rgb(36, 214, 188)" stroke-width="1.0" />
<path d="M 338 -172 Q -25 75 -164 -342 A 380 380 1 0, 0 -165 -342 Q -25 75 338 -171 A 380 380 1 0, 0 338 -172 z" fill="rgb(36, 214, 188)" stroke="rgb(36, 214, 188)" stroke-width="1.0" />
<path d="M 338 -171 Q -25 75 -164 -342" fill="none" stroke="rgb(36, 214, 188)" stroke-width="1.0" />
<path d="M 339 -170 Q -25 75 -163 -343 A 380 380 1 0, 0 -164 -342 Q -25 75 339 -170 A 380 380 1 0, 0 339 -170 z" fill="rgb(36, 214, 188)" stroke="rgb(36, 214, 188)" stroke-width="1.0" />
<path d="M 339 -170 Q -26 75 -163 -343" fill="none" stroke="rgb(36, 214, 188)" stroke-width="1.0" />
<path d="M 340 -169 Q -26 75 -162 -343 A 380 380 1 0, 0 -162 -343 Q -26 75 340 -168 A 380 380 1 0, 0 340 -169 z" fill="rgb(36, 214, 188)" stroke="rgb(36, 214, 188)" stroke-width="1.0" />
<path d="M 340 -168 Q -26 75 -161 -343 A 380 380 1 0, 0 -162 -343 Q -26 75 341 -167 A 380 380 1 0, 0 340 -168 z" fill="rgb(36, 214, 188)" stroke="rgb(36, 214, 188)" stroke-width="1.0" />
<path d="M 340 -168 Q -26 75 -161 -343" fill="none" stroke="rgb(36, 214, 188)" stroke-width="1.0" />
<path d="M 341 -167 Q -26 75 -161 -344" fill="none" stroke="rgb(36, 214, 188)" stroke-width="1.0" />
<path d="M 341 -166 Q -26 75 -160 -344" fill="none" stroke="rgb(36, 214, 188)" stroke-width="1.0" />
<path d="M 341 -165 Q -26 75 -160 -344" fill="none" stroke="rgb(36, 214, 188)" stroke-width="1.0" />
<path d="M 342 -164 Q -27 75 -159 -344" fill="none" stroke="rgb(36, 214, 188)" stroke-width="1.0" />
<path d="M 342 -163 Q -27 75 -158 -345" fill="none" stroke="rgb(36, 214, 188)" stroke-width="1.0" />
<path d="M 343 -162 Q -27 75 -157 -345" fill="none" stroke="rgb(36, 214, 188)" stroke-width="1.0" />
<path d="M 343 -162 Q -27 75 -157 -345" fill="none" stroke="rgb(36, 214, 188)" stroke-width="1.0" />
<path d="M 343 -162 Q -27 75 -157 -345" fill="none" stroke="rgb(36, 214, 188)" stroke-width="1.0" />
<path d="M 344 -161 Q -27 75 -156 -346" fill="none" stroke="rgb(36, 214, 188)" stroke-width="1.0" />
<path d="M 344 -160 Q -27 74 -156 -346" fill="none" stroke="rgb(36, 214, 188)" stroke-width="1.0" />
<path d="M 345 -159 Q -28 74 -155 -346" fill="none" stroke="rgb(36, 214, 188)" stroke-width="1.0" />
<path d="M 345 -158 Q -28 74 -154 -346 A 380 380 1 0, 0 -155 -346 Q -28 74 345 -157 A 380 380 1 0, 0 345 -158 z" fill="rgb(36, 214, 188)" stroke="rgb(36, 214, 188)" stroke-width="1.0" />
<path d="M 345 -157 Q -28 74 -154 -347" fill="none" stroke="rgb(36, 214, 188)" stroke-width="1.0" />
<path d="M 346 -156 Q -28 74 -154 -347" fill="none" stroke="rgb(36, 214, 188)" stroke-width="1.0" />
<path d="M 346 -155 Q -28 74 -151 -348" fill="none" stroke="rgb(36, 214, 188)" stroke-width="1.0" />
<path d="M 347 -154 Q -28 74 -151 -348" fill="none" stroke="rgb(36, 214, 188)" stroke-width="1.0" />
<path d="M 347 -153 Q -29 74 -150 -348" fill="none" stroke="rgb(36, 214, 188)" stroke-width="1.0" />
<path d="M 347 -153 Q -29 74 -149 -349 A 380 380 1 0, 0 -150 -348 Q -29 74 348 -152 A 380 380 1 0, 0 347 -153 z" fill="rgb(36, 214, 188)" stroke="rgb(36, 214, 188)" stroke-width="1.0" />
<path d="M 348 -152 Q -29 74 -149 -349" fill="none" stroke="rgb(36, 214, 188)" stroke-width="1.0" />
<path d="M 348 -151 Q -29 74 -148 -349" fill="none" stroke="rgb(36, 214, 188)" stroke-width="1.0" />
<path d="M 349 -149 Q -29 74 -147 -350" fill="none" stroke="rgb(36, 214, 188)" stroke-width="1.0" />
<path d="M 349 -150 Q -29 74 -147 -350" fill="none" stroke="rgb(36, 214, 188)" stroke-width="1.0" />
<path d="M 349 -148 Q -30 74 -147 -350" fill="none" stroke="rgb(36, 214, 188)" stroke-width="1.0" />
<path d="M 350 -147 Q -30 74 -146 -350" fill="none" stroke="rgb(36, 214, 188)" stroke-width="1.0" />
<path d="M 350 -146 Q -30 73 -145 -351 A 380 380 1 0, 0 -146 -350 Q -30 73 350 -145 A 380 380 1 0, 0 350 -146 z" fill="rgb(36, 214, 188)" stroke="rgb(36, 214, 188)" stroke-width="1.0" />
<path d="M 350 -145 Q -30 73 -145 -351 A 380 380 1 0, 0 -145 -351 Q -30 73 351 -144 A 380 380 1 0, 0 350 -145 z" fill="rgb(36, 214, 188)" stroke="rgb(36, 214, 188)" stroke-width="1.0" />
<path d="M 351 -144 Q -30 73 -144 -351" fill="none" stroke="rgb(36, 214, 188)" stroke-width="1.0" />
<path d="M 351 -143 Q -30 73 -143 -351" fill="none" stroke="rgb(36, 214, 188)" stroke-width="1.0" />
<path d="M 352 -142 Q -31 73 -143 -351" fill="none" stroke="rgb(36, 214, 188)" stroke-width="1.0" />
<path d="M 352 -141 Q -31 73 -142 -352" fill="none" stroke="rgb(36, 214, 188)" stroke-width="1.0" />
<path d="M 353 -140 Q -31 73 -142 -352" fill="none" stroke="rgb(36, 214, 188)" stroke-width="1.0" />
<path d="M 353 -139 Q -31 73 -141 -352" fill="none" stroke="rgb(36, 214, 188)" stroke-width="1.0" />
<path d="M 353 -138 Q -31 73 -140 -352" fill="none" stroke="rgb(36, 214, 188)" stroke-width="1.0" />
<path d="M 353 -138 Q -31 73 -140 -352" fill="none" stroke="rgb(36, 214, 188)" stroke-width="1.0" />
<path d="M 354 -137 Q -31 73 -140 -352" fill="none" stroke="rgb(36, 214, 188)" stroke-width="1.0" />
<path d="M 0 -380 A 380 380 0 1, 1 -76 372 L -80 391 A 400 400 0 1, 0 0 -400 z" fill="rgb(36, 214, 188)" stroke="black" stroke-width="1.0" />
<path d="M -76 372 A 380 380 0 0, 1 -76 372 L -80 391 A 400 400 0 0, 0 -80 391 z" fill="rgb(0, 0, 0)" stroke="black" stroke-width="1.0" />
<path d="M -76 372 A 380 380 0 0, 1 0 -379 L 0 -399 A 400 400 0 0, 0 -80 391 z" fill="rgb(198, 31, 195)" stroke="black" stroke-width="1.0" />
<path d="M 0 -379 A 380 380 0 0, 1 0 -380 L 0 -400 A 400 400 0 0, 0 0 -399 z" fill="rgb(0, 0, 0)" stroke="black" stroke-width="1.0" />
</g> </svg>
